 run only with multigrid method:
 p1 [coords = (0,1)]:  subdomain [-1,-0.749969]x[-0.749969,-0.499939],  extents [0,1023]x[1024,2047]
 p33 [coords = (4,1)]:  subdomain [0.000122085,0.250153]x[-0.749969,-0.499939],  extents [4096,5119]x[1024,2047]
 p41 [coords = (5,1)]:  subdomain [0.250153,0.500183]x[-0.749969,-0.499939],  extents [5120,6143]x[1024,2047]
 p57 [coords = (7,1)]:  subdomain [0.750214,1.00024]x[-0.749969,-0.499939],  extents [7168,8191]x[1024,2047]
 p9 [coords = (1,1)]:  subdomain [-0.749969,-0.499939]x[-0.749969,-0.499939],  extents [1024,2047]x[1024,2047]
 p25 [coords = (3,1)]:  subdomain [-0.249908,0.000122085]x[-0.749969,-0.499939],  extents [3072,4095]x[1024,2047]
 p3 [coords = (0,3)]:  subdomain [-1,-0.749969]x[-0.249908,0.000122085],  extents [0,1023]x[3072,4095]
 p17 [coords = (2,1)]:  subdomain [-0.499939,-0.249908]x[-0.749969,-0.499939],  extents [2048,3071]x[1024,2047]
 p49 [coords = (6,1)]:  subdomain [0.500183,0.750214]x[-0.749969,-0.499939],  extents [6144,7167]x[1024,2047]
 p2 [coords = (0,2)]:  subdomain [-1,-0.749969]x[-0.499939,-0.249908],  extents [0,1023]x[2048,3071]
 p4 [coords = (0,4)]:  subdomain [-1,-0.749969]x[0.000122085,0.250153],  extents [0,1023]x[4096,5119]
 p5 [coords = (0,5)]:  subdomain [-1,-0.749969]x[0.250153,0.500183],  extents [0,1023]x[5120,6143]
 p7 [coords = (0,7)]:  subdomain [-1,-0.749969]x[0.750214,1.00024],  extents [0,1023]x[7168,8191]

 hypre_test problem parameters:
   Nx = 8192
   Ny = 8192
   Px = 8
   Py = 8
   numprocs = 64
   mu_x = 1
   mu_y = 1
   xL = -1
   xR = 1
   yL = -1
   yR = 1
   tol = 1e-10
   maxit = 50
   relch = 1
   rlxtype = 3
   npre = 3
   npost = 3

 p0 [coords = (0,0)]:  subdomain [-1,-0.749969]x[-1,-0.749969],  extents [0,1023]x[0,1023]

 hypre_test: solving matrix system 
   lin resid = 1.2e-11 (tol = 1.0e-10), its = 11

 hypre_test runtimes:
   initialization time = 0.154232
   overall solve time  = 4.26368
   PFMG solve time     = 4.02426
   overall run time    = 4.41791

 p6 [coords = (0,6)]:  subdomain [-1,-0.749969]x[0.500183,0.750214],  extents [0,1023]x[6144,7167]
 p34 [coords = (4,2)]:  subdomain [0.000122085,0.250153]x[-0.499939,-0.249908],  extents [4096,5119]x[2048,3071]
 p36 [coords = (4,4)]:  subdomain [0.000122085,0.250153]x[0.000122085,0.250153],  extents [4096,5119]x[4096,5119]
 p37 [coords = (4,5)]:  subdomain [0.000122085,0.250153]x[0.250153,0.500183],  extents [4096,5119]x[5120,6143]
 p35 [coords = (4,3)]:  subdomain [0.000122085,0.250153]x[-0.249908,0.000122085],  extents [4096,5119]x[3072,4095]
 p39 [coords = (4,7)]:  subdomain [0.000122085,0.250153]x[0.750214,1.00024],  extents [4096,5119]x[7168,8191]
 p38 [coords = (4,6)]:  subdomain [0.000122085,0.250153]x[0.500183,0.750214],  extents [4096,5119]x[6144,7167]
 p32 [coords = (4,0)]:  subdomain [0.000122085,0.250153]x[-1,-0.749969],  extents [4096,5119]x[0,1023]
 p42 [coords = (5,2)]:  subdomain [0.250153,0.500183]x[-0.499939,-0.249908],  extents [5120,6143]x[2048,3071]
 p44 [coords = (5,4)]:  subdomain [0.250153,0.500183]x[0.000122085,0.250153],  extents [5120,6143]x[4096,5119]
 p43 [coords = (5,3)]:  subdomain [0.250153,0.500183]x[-0.249908,0.000122085],  extents [5120,6143]x[3072,4095]
 p45 [coords = (5,5)]:  subdomain [0.250153,0.500183]x[0.250153,0.500183],  extents [5120,6143]x[5120,6143]
 p58 [coords = (7,2)]:  subdomain [0.750214,1.00024]x[-0.499939,-0.249908],  extents [7168,8191]x[2048,3071]
 p46 [coords = (5,6)]:  subdomain [0.250153,0.500183]x[0.500183,0.750214],  extents [5120,6143]x[6144,7167]
 p59 [coords = (7,3)]:  subdomain [0.750214,1.00024]x[-0.249908,0.000122085],  extents [7168,8191]x[3072,4095]
 p47 [coords = (5,7)]:  subdomain [0.250153,0.500183]x[0.750214,1.00024],  extents [5120,6143]x[7168,8191]
 p60 [coords = (7,4)]:  subdomain [0.750214,1.00024]x[0.000122085,0.250153],  extents [7168,8191]x[4096,5119]
 p40 [coords = (5,0)]:  subdomain [0.250153,0.500183]x[-1,-0.749969],  extents [5120,6143]x[0,1023]
 p61 [coords = (7,5)]:  subdomain [0.750214,1.00024]x[0.250153,0.500183],  extents [7168,8191]x[5120,6143]
 p62 [coords = (7,6)]:  subdomain [0.750214,1.00024]x[0.500183,0.750214],  extents [7168,8191]x[6144,7167]
 p63 [coords = (7,7)]:  subdomain [0.750214,1.00024]x[0.750214,1.00024],  extents [7168,8191]x[7168,8191]
 p56 [coords = (7,0)]:  subdomain [0.750214,1.00024]x[-1,-0.749969],  extents [7168,8191]x[0,1023]
 p10 [coords = (1,2)]:  subdomain [-0.749969,-0.499939]x[-0.499939,-0.249908],  extents [1024,2047]x[2048,3071]
 p26 [coords = (3,2)]:  subdomain [-0.249908,0.000122085]x[-0.499939,-0.249908],  extents [3072,4095]x[2048,3071]
 p11 [coords = (1,3)]:  subdomain [-0.749969,-0.499939]x[-0.249908,0.000122085],  extents [1024,2047]x[3072,4095]
 p27 [coords = (3,3)]:  subdomain [-0.249908,0.000122085]x[-0.249908,0.000122085],  extents [3072,4095]x[3072,4095]
 p12 [coords = (1,4)]:  subdomain [-0.749969,-0.499939]x[0.000122085,0.250153],  extents [1024,2047]x[4096,5119]
 p28 [coords = (3,4)]:  subdomain [-0.249908,0.000122085]x[0.000122085,0.250153],  extents [3072,4095]x[4096,5119]
 p29 [coords = (3,5)]:  subdomain [-0.249908,0.000122085]x[0.250153,0.500183],  extents [3072,4095]x[5120,6143]
 p15 [coords = (1,7)]:  subdomain [-0.749969,-0.499939]x[0.750214,1.00024],  extents [1024,2047]x[7168,8191]
 p13 [coords = (1,5)]:  subdomain [-0.749969,-0.499939]x[0.250153,0.500183],  extents [1024,2047]x[5120,6143]
 p31 [coords = (3,7)]:  subdomain [-0.249908,0.000122085]x[0.750214,1.00024],  extents [3072,4095]x[7168,8191]
 p14 [coords = (1,6)]:  subdomain [-0.749969,-0.499939]x[0.500183,0.750214],  extents [1024,2047]x[6144,7167]
 p30 [coords = (3,6)]:  subdomain [-0.249908,0.000122085]x[0.500183,0.750214],  extents [3072,4095]x[6144,7167]
 p8 [coords = (1,0)]:  subdomain [-0.749969,-0.499939]x[-1,-0.749969],  extents [1024,2047]x[0,1023]
 p24 [coords = (3,0)]:  subdomain [-0.249908,0.000122085]x[-1,-0.749969],  extents [3072,4095]x[0,1023]
 p50 [coords = (6,2)]:  subdomain [0.500183,0.750214]x[-0.499939,-0.249908],  extents [6144,7167]x[2048,3071]
 p18 [coords = (2,2)]:  subdomain [-0.499939,-0.249908]x[-0.499939,-0.249908],  extents [2048,3071]x[2048,3071]
 p51 [coords = (6,3)]:  subdomain [0.500183,0.750214]x[-0.249908,0.000122085],  extents [6144,7167]x[3072,4095]
 p20 [coords = (2,4)]:  subdomain [-0.499939,-0.249908]x[0.000122085,0.250153],  extents [2048,3071]x[4096,5119]
 p52 [coords = (6,4)]:  subdomain [0.500183,0.750214]x[0.000122085,0.250153],  extents [6144,7167]x[4096,5119]
 p21 [coords = (2,5)]:  subdomain [-0.499939,-0.249908]x[0.250153,0.500183],  extents [2048,3071]x[5120,6143]
 p53 [coords = (6,5)]:  subdomain [0.500183,0.750214]x[0.250153,0.500183],  extents [6144,7167]x[5120,6143]
 p19 [coords = (2,3)]:  subdomain [-0.499939,-0.249908]x[-0.249908,0.000122085],  extents [2048,3071]x[3072,4095]
 p54 [coords = (6,6)]:  subdomain [0.500183,0.750214]x[0.500183,0.750214],  extents [6144,7167]x[6144,7167]
 p23 [coords = (2,7)]:  subdomain [-0.499939,-0.249908]x[0.750214,1.00024],  extents [2048,3071]x[7168,8191]
 p55 [coords = (6,7)]:  subdomain [0.500183,0.750214]x[0.750214,1.00024],  extents [6144,7167]x[7168,8191]
 p22 [coords = (2,6)]:  subdomain [-0.499939,-0.249908]x[0.500183,0.750214],  extents [2048,3071]x[6144,7167]
 p48 [coords = (6,0)]:  subdomain [0.500183,0.750214]x[-1,-0.749969],  extents [6144,7167]x[0,1023]
 p16 [coords = (2,0)]:  subdomain [-0.499939,-0.249908]x[-1,-0.749969],  extents [2048,3071]x[0,1023]
 run with multigrid as preconditioner:
 p1 [coords = (0,1)]:  subdomain [-1,-0.749969]x[-0.749969,-0.499939],  extents [0,1023]x[1024,2047]
 p25 [coords = (3,1)]:  subdomain [-0.249908,0.000122085]x[-0.749969,-0.499939],  extents [3072,4095]x[1024,2047]
 p41 [coords = (5,1)]:  subdomain [0.250153,0.500183]x[-0.749969,-0.499939],  extents [5120,6143]x[1024,2047]
 p34 [coords = (4,2)]:  subdomain [0.000122085,0.250153]x[-0.499939,-0.249908],  extents [4096,5119]x[2048,3071]
 p9 [coords = (1,1)]:  subdomain [-0.749969,-0.499939]x[-0.749969,-0.499939],  extents [1024,2047]x[1024,2047]
 p17 [coords = (2,1)]:  subdomain [-0.499939,-0.249908]x[-0.749969,-0.499939],  extents [2048,3071]x[1024,2047]
 p57 [coords = (7,1)]:  subdomain [0.750214,1.00024]x[-0.749969,-0.499939],  extents [7168,8191]x[1024,2047]
 p49 [coords = (6,1)]:  subdomain [0.500183,0.750214]x[-0.749969,-0.499939],  extents [6144,7167]x[1024,2047]
 p2 [coords = (0,2)]:  subdomain [-1,-0.749969]x[-0.499939,-0.249908],  extents [0,1023]x[2048,3071]
 p3 [coords = (0,3)]:  subdomain [-1,-0.749969]x[-0.249908,0.000122085],  extents [0,1023]x[3072,4095]
 p4 [coords = (0,4)]:  subdomain [-1,-0.749969]x[0.000122085,0.250153],  extents [0,1023]x[4096,5119]
 p5 [coords = (0,5)]:  subdomain [-1,-0.749969]x[0.250153,0.500183],  extents [0,1023]x[5120,6143]
 p6 [coords = (0,6)]:  subdomain [-1,-0.749969]x[0.500183,0.750214],  extents [0,1023]x[6144,7167]
 p7 [coords = (0,7)]:  subdomain [-1,-0.749969]x[0.750214,1.00024],  extents [0,1023]x[7168,8191]

 hypre_test problem parameters:
   Nx = 8192
   Ny = 8192
   Px = 8
   Py = 8
   numprocs = 64
   mu_x = 1
   mu_y = 1
   xL = -1
   xR = 1
   yL = -1
   yR = 1
   tol = 1e-10
   PCGmaxit = 50
   PFMGmaxit = 1
   relch = 1
   rlxtype = 3
   npre = 3
   npost = 3

 p0 [coords = (0,0)]:  subdomain [-1,-0.749969]x[-1,-0.749969],  extents [0,1023]x[0,1023]

 hypre_test: solving matrix system 
   lin resid = 2.7e-13 (tol = 1.0e-10), PCG its = 9, PFMG its = 1

 hypre_test runtimes:
   initialization time = 0.150181
   overall solve time  = 4.62447
   PCG solve time      = 4.38189
   overall run time    = 4.77465

 p27 [coords = (3,3)]:  subdomain [-0.249908,0.000122085]x[-0.249908,0.000122085],  extents [3072,4095]x[3072,4095]
 p28 [coords = (3,4)]:  subdomain [-0.249908,0.000122085]x[0.000122085,0.250153],  extents [3072,4095]x[4096,5119]
 p26 [coords = (3,2)]:  subdomain [-0.249908,0.000122085]x[-0.499939,-0.249908],  extents [3072,4095]x[2048,3071]
 p29 [coords = (3,5)]:  subdomain [-0.249908,0.000122085]x[0.250153,0.500183],  extents [3072,4095]x[5120,6143]
 p30 [coords = (3,6)]:  subdomain [-0.249908,0.000122085]x[0.500183,0.750214],  extents [3072,4095]x[6144,7167]
 p31 [coords = (3,7)]:  subdomain [-0.249908,0.000122085]x[0.750214,1.00024],  extents [3072,4095]x[7168,8191]
 p24 [coords = (3,0)]:  subdomain [-0.249908,0.000122085]x[-1,-0.749969],  extents [3072,4095]x[0,1023]
 p42 [coords = (5,2)]:  subdomain [0.250153,0.500183]x[-0.499939,-0.249908],  extents [5120,6143]x[2048,3071]
 p43 [coords = (5,3)]:  subdomain [0.250153,0.500183]x[-0.249908,0.000122085],  extents [5120,6143]x[3072,4095]
 p44 [coords = (5,4)]:  subdomain [0.250153,0.500183]x[0.000122085,0.250153],  extents [5120,6143]x[4096,5119]
 p45 [coords = (5,5)]:  subdomain [0.250153,0.500183]x[0.250153,0.500183],  extents [5120,6143]x[5120,6143]
 p46 [coords = (5,6)]:  subdomain [0.250153,0.500183]x[0.500183,0.750214],  extents [5120,6143]x[6144,7167]
 p47 [coords = (5,7)]:  subdomain [0.250153,0.500183]x[0.750214,1.00024],  extents [5120,6143]x[7168,8191]
 p40 [coords = (5,0)]:  subdomain [0.250153,0.500183]x[-1,-0.749969],  extents [5120,6143]x[0,1023]
 p33 [coords = (4,1)]:  subdomain [0.000122085,0.250153]x[-0.749969,-0.499939],  extents [4096,5119]x[1024,2047]
 p18 [coords = (2,2)]:  subdomain [-0.499939,-0.249908]x[-0.499939,-0.249908],  extents [2048,3071]x[2048,3071]
 p10 [coords = (1,2)]:  subdomain [-0.749969,-0.499939]x[-0.499939,-0.249908],  extents [1024,2047]x[2048,3071]
 p35 [coords = (4,3)]:  subdomain [0.000122085,0.250153]x[-0.249908,0.000122085],  extents [4096,5119]x[3072,4095]
 p19 [coords = (2,3)]:  subdomain [-0.499939,-0.249908]x[-0.249908,0.000122085],  extents [2048,3071]x[3072,4095]
 p12 [coords = (1,4)]:  subdomain [-0.749969,-0.499939]x[0.000122085,0.250153],  extents [1024,2047]x[4096,5119]
 p11 [coords = (1,3)]:  subdomain [-0.749969,-0.499939]x[-0.249908,0.000122085],  extents [1024,2047]x[3072,4095]
 p14 [coords = (1,6)]:  subdomain [-0.749969,-0.499939]x[0.500183,0.750214],  extents [1024,2047]x[6144,7167]
 p36 [coords = (4,4)]:  subdomain [0.000122085,0.250153]x[0.000122085,0.250153],  extents [4096,5119]x[4096,5119]
 p20 [coords = (2,4)]:  subdomain [-0.499939,-0.249908]x[0.000122085,0.250153],  extents [2048,3071]x[4096,5119]
 p37 [coords = (4,5)]:  subdomain [0.000122085,0.250153]x[0.250153,0.500183],  extents [4096,5119]x[5120,6143]
 p16 [coords = (2,0)]:  subdomain [-0.499939,-0.249908]x[-1,-0.749969],  extents [2048,3071]x[0,1023]
 p23 [coords = (2,7)]:  subdomain [-0.499939,-0.249908]x[0.750214,1.00024],  extents [2048,3071]x[7168,8191]
 p21 [coords = (2,5)]:  subdomain [-0.499939,-0.249908]x[0.250153,0.500183],  extents [2048,3071]x[5120,6143]
 p38 [coords = (4,6)]:  subdomain [0.000122085,0.250153]x[0.500183,0.750214],  extents [4096,5119]x[6144,7167]
 p15 [coords = (1,7)]:  subdomain [-0.749969,-0.499939]x[0.750214,1.00024],  extents [1024,2047]x[7168,8191]
 p39 [coords = (4,7)]:  subdomain [0.000122085,0.250153]x[0.750214,1.00024],  extents [4096,5119]x[7168,8191]
 p8 [coords = (1,0)]:  subdomain [-0.749969,-0.499939]x[-1,-0.749969],  extents [1024,2047]x[0,1023]
 p22 [coords = (2,6)]:  subdomain [-0.499939,-0.249908]x[0.500183,0.750214],  extents [2048,3071]x[6144,7167]
 p13 [coords = (1,5)]:  subdomain [-0.749969,-0.499939]x[0.250153,0.500183],  extents [1024,2047]x[5120,6143]
 p32 [coords = (4,0)]:  subdomain [0.000122085,0.250153]x[-1,-0.749969],  extents [4096,5119]x[0,1023]
 p58 [coords = (7,2)]:  subdomain [0.750214,1.00024]x[-0.499939,-0.249908],  extents [7168,8191]x[2048,3071]
 p60 [coords = (7,4)]:  subdomain [0.750214,1.00024]x[0.000122085,0.250153],  extents [7168,8191]x[4096,5119]
 p61 [coords = (7,5)]:  subdomain [0.750214,1.00024]x[0.250153,0.500183],  extents [7168,8191]x[5120,6143]
 p62 [coords = (7,6)]:  subdomain [0.750214,1.00024]x[0.500183,0.750214],  extents [7168,8191]x[6144,7167]
 p59 [coords = (7,3)]:  subdomain [0.750214,1.00024]x[-0.249908,0.000122085],  extents [7168,8191]x[3072,4095]
 p63 [coords = (7,7)]:  subdomain [0.750214,1.00024]x[0.750214,1.00024],  extents [7168,8191]x[7168,8191]
 p56 [coords = (7,0)]:  subdomain [0.750214,1.00024]x[-1,-0.749969],  extents [7168,8191]x[0,1023]
 p50 [coords = (6,2)]:  subdomain [0.500183,0.750214]x[-0.499939,-0.249908],  extents [6144,7167]x[2048,3071]
 p52 [coords = (6,4)]:  subdomain [0.500183,0.750214]x[0.000122085,0.250153],  extents [6144,7167]x[4096,5119]
 p51 [coords = (6,3)]:  subdomain [0.500183,0.750214]x[-0.249908,0.000122085],  extents [6144,7167]x[3072,4095]
 p54 [coords = (6,6)]:  subdomain [0.500183,0.750214]x[0.500183,0.750214],  extents [6144,7167]x[6144,7167]
 p48 [coords = (6,0)]:  subdomain [0.500183,0.750214]x[-1,-0.749969],  extents [6144,7167]x[0,1023]
 p55 [coords = (6,7)]:  subdomain [0.500183,0.750214]x[0.750214,1.00024],  extents [6144,7167]x[7168,8191]
 p53 [coords = (6,5)]:  subdomain [0.500183,0.750214]x[0.250153,0.500183],  extents [6144,7167]x[5120,6143]
